{
    "root": "apps/docs-e2e",
    "sourceRoot": "apps/docs-e2e/src",
    "projectType": "application",
    "targets": {
        "e2e": {
            "executor": "@nrwl/cypress:cypress",
            "options": {
                "cypressConfig": "apps/docs-e2e/cypress.json",
                "tsConfig": "apps/docs-e2e/tsconfig.e2e.json",
                "devServerTarget": "docs:serve:e2e"
            },
            "configurations": {
                "development": {
                    "devServerTarget": "docs:serve:e2e"
                },
                "production": {
                    "devServerTarget": "docs:serve:production"
                },
                "e2e-ci": {
                    "devServerTarget": "docs:serve:e2e-ci"
                },
                "e2e-custom": {
                    "devServerTarget": "docs:serve:e2e-custom"
                }
            }
        },
        "lint": {
            "executor": "@nrwl/linter:eslint",
            "options": {
                "lintFilePatterns": ["apps/docs-e2e/**/*.{js,ts}"]
            },
            "outputs": ["{options.outputFile}"]
        }
    },
    "tags": [],
    "implicitDependencies": ["docs"]
}
