<?xml version="1.0" encoding="UTF-8"?>
<svg width="122.3px" height="122.3px" viewBox="0 0 122.3 122.3" version="1.1" xmlns="http://www.w3.org/2000/svg" xmlns:xlink="http://www.w3.org/1999/xlink">
    <title>logo</title>
    <g id="Page-1" stroke="none" stroke-width="1" fill="none" fill-rule="evenodd">
        <g id="logo" fill-rule="nonzero">
            <g id="logo_2_">
                <g id="mountains_3_">
                    <polygon id="Path" fill="#AEAEAE" points="122.3 84.4 70 0 17.8 84.4"></polygon>
                    <polygon id="Path" fill="#EFEFEF" points="86.7 84.4 43.3 14.3 0 84.4"></polygon>
                </g>
            </g>
        </g>
    </g>
</svg>
