<svg width="140" height="25" viewBox="0 0 140 25" xmlns="http://www.w3.org/2000/svg">
    <g fill-rule="nonzero" fill="none">
        <path d="M42.969 19.278c1.232.991 3.851 2.19 5.931 2.19 2.594 0 3.44-1.042 3.44-2.164 0-1.72-1.95-2.138-4.082-2.555-2.13-.417-6.88-1.095-6.88-5.528 0-4.302 3.825-5.45 6.855-5.45 3.03 0 4.904.94 6.727 2.347l-1.9 2.66a9.324 9.324 0 0 0-5.187-1.747c-1.36 0-3.03.417-3.03 1.851 0 1.67 2.286 2.138 4.186 2.53 2.156.443 6.778.808 6.778 5.71 0 3.78-2.773 5.606-6.855 5.606-3.75 0-5.803-1.356-7.703-2.764l1.72-2.686zM67.746 9.004c-3.261 0-5.88 2.816-5.88 6.232 0 3.442 2.644 6.232 5.88 6.232a5.437 5.437 0 0 0 4.93-2.894l3.235 1.33c-1.335 2.842-4.288 4.823-8.14 4.823-5.16 0-9.32-4.25-9.32-9.465 0-5.24 4.185-9.465 9.32-9.465 4.006 0 6.882 2.217 8.14 4.85l-3.236 1.33a5.46 5.46 0 0 0-4.93-2.973zm8.987 15.332 9.218-18.305h.334l9.218 18.305h-3.749l-1.412-2.868h-8.5l-1.386 2.868h-3.723zm6.779-5.919h5.135l-2.567-5.528-2.568 5.528zm27.216 2.816v3.103H97.762V6.031h3.44v15.202h9.526zm6.573 3.103h-3.44V6.031h3.44v18.305zm4.032-9.152c0-5.215 3.698-9.49 9.32-9.49 5.65 0 9.347 4.275 9.347 9.49s-3.698 9.492-9.346 9.492c-5.65.026-9.32-4.224-9.32-9.492zm3.415 0c0 3.338 2.645 6.258 5.906 6.258 3.235 0 5.905-2.92 5.905-6.258 0-3.337-2.644-6.231-5.905-6.231-3.261.026-5.906 2.946-5.906 6.231z" fill="#000"/>
        <path fill="#5B5B5B" d="m35.665 25-7.616-12.5L20.434 0 5.202 25z"/>
        <path fill="#000" d="M25.287 25 12.63 4.25 0 25z"/>
    </g>
</svg>
