{
    "projectType": "library",
    "root": "libs/sandbox-web/feature-auth",
    "sourceRoot": "libs/sandbox-web/feature-auth/src",
    "prefix": "baza",
    "targets": {
        "lint": {
            "executor": "@angular-devkit/build-angular:tslint",
            "options": {
                "tsConfig": ["libs/sandbox-web/feature-auth/tsconfig.lib.json", "libs/sandbox-web/feature-auth/tsconfig.spec.json"],
                "exclude": ["**/node_modules/**", "!libs/sandbox-web/feature-auth/**/*"]
            }
        },
        "test": {
            "executor": "@nrwl/jest:jest",
            "outputs": ["coverage/libs/sandbox-web/feature-auth"],
            "options": {
                "jestConfig": "libs/sandbox-web/feature-auth/jest.config.js",
                "passWithNoTests": true
            }
        }
    },
    "tags": []
}
