<svg width="32" height="33" viewBox="0 0 32 33" xmlns="http://www.w3.org/2000/svg">
    <g transform="translate(0 .5)" fill="none" fill-rule="evenodd">
        <circle fill="#91C2D9" cx="16" cy="16" r="16"/>
        <path d="M14.588 21c-.228 0-.456-.12-.627-.299l-3.733-4.184c-.313-.359-.313-.927.057-1.255.342-.33.884-.33 1.197.06l3.106 3.466 5.955-6.515c.314-.359.855-.359 1.197-.03.342.329.342.897.028 1.255l-6.553 7.233a.863.863 0 0 1-.627.269z" stroke="#222" stroke-width=".2" fill="#222" stroke-linejoin="round"/>
    </g>
</svg>
