{
    "projectType": "library",
    "root": "libs/sandbox-web/ui-components",
    "sourceRoot": "libs/sandbox-web/ui-components/src",
    "prefix": "baza",
    "targets": {
        "lint": {
            "executor": "@nrwl/linter:eslint",
            "outputs": ["{options.outputFile}"],
            "options": {
                "lintFilePatterns": ["libs/sandbox-web/ui-components/**/*.ts"]
            }
        },
        "test": {
            "executor": "@nrwl/jest:jest",
            "outputs": ["coverage/libs/sandbox-web/ui-components"],
            "options": {
                "jestConfig": "libs/sandbox-web/ui-components/jest.config.js",
                "passWithNoTests": true
            }
        }
    },
    "tags": []
}
