{
    "projectType": "application",
    "root": "apps/cms",
    "sourceRoot": "apps/cms/src",
    "prefix": "baza",
    "targets": {
        "build": {
            "executor": "@angular-devkit/build-angular:browser",
            "options": {
                "allowedCommonJsDependencies": [
                    "@nestjs/swagger/dist/decorators/api-model-property.decorator",
                    "validator",
                    "lodash/fp",
                    "url",
                    "owasp-password-strength-test"
                ],
                "outputPath": "dist/cms/browser",
                "index": "apps/cms/src/index.html",
                "main": "apps/cms/src/main.ts",
                "polyfills": "apps/cms/src/polyfills.ts",
                "tsConfig": "apps/cms/tsconfig.app.json",
                "aot": true,
                "assets": [
                    "apps/cms/src/assets",
                    "apps/cms/src/browserconfig.xml",
                    "apps/cms/src/site.webmanifest",
                    {
                        "glob": "**/*",
                        "input": "./node_modules/@ant-design/icons-angular/src/inline-svg/",
                        "output": "/assets/"
                    }
                ],
                "styles": ["./node_modules/cropperjs/dist/cropper.min.css", "apps/cms/src/styles.less"],
                "scripts": []
            },
            "configurations": {
                "local": {
                    "fileReplacements": [
                        {
                            "replace": "apps/cms/src/environments/environment.ts",
                            "with": "apps/cms/src/environments/environment.local.ts"
                        }
                    ],
                    "optimization": false,
                    "outputHashing": "all",
                    "sourceMap": true,
                    "namedChunks": true,
                    "extractLicenses": false,
                    "vendorChunk": false,
                    "buildOptimizer": false,
                    "budgets": [
                        {
                            "type": "initial",
                            "maximumWarning": "20mb",
                            "maximumError": "50mb"
                        },
                        {
                            "type": "anyComponentStyle",
                            "maximumWarning": "60kb",
                            "maximumError": "100kb"
                        }
                    ]
                },
                "production": {
                    "fileReplacements": [
                        {
                            "replace": "apps/cms/src/environments/environment.ts",
                            "with": "apps/cms/src/environments/environment.prod.ts"
                        }
                    ],
                    "optimization": true,
                    "outputHashing": "all",
                    "sourceMap": false,
                    "namedChunks": false,
                    "extractLicenses": true,
                    "vendorChunk": false,
                    "buildOptimizer": true,
                    "budgets": [
                        {
                            "type": "initial",
                            "maximumWarning": "2mb",
                            "maximumError": "5mb"
                        },
                        {
                            "type": "anyComponentStyle",
                            "maximumWarning": "6kb",
                            "maximumError": "10kb"
                        }
                    ]
                },
                "uat": {
                    "fileReplacements": [
                        {
                            "replace": "apps/cms/src/environments/environment.ts",
                            "with": "apps/cms/src/environments/environment.uat.ts"
                        }
                    ],
                    "optimization": true,
                    "outputHashing": "all",
                    "sourceMap": false,
                    "namedChunks": false,
                    "extractLicenses": true,
                    "vendorChunk": false,
                    "buildOptimizer": true,
                    "budgets": [
                        {
                            "type": "initial",
                            "maximumWarning": "2mb",
                            "maximumError": "5mb"
                        },
                        {
                            "type": "anyComponentStyle",
                            "maximumWarning": "6kb",
                            "maximumError": "10kb"
                        }
                    ]
                },
                "preprod": {
                    "fileReplacements": [
                        {
                            "replace": "apps/cms/src/environments/environment.ts",
                            "with": "apps/cms/src/environments/environment.preprod.ts"
                        }
                    ],
                    "optimization": true,
                    "outputHashing": "all",
                    "sourceMap": false,
                    "namedChunks": false,
                    "extractLicenses": true,
                    "vendorChunk": false,
                    "buildOptimizer": true,
                    "budgets": [
                        {
                            "type": "initial",
                            "maximumWarning": "2mb",
                            "maximumError": "5mb"
                        },
                        {
                            "type": "anyComponentStyle",
                            "maximumWarning": "6kb",
                            "maximumError": "10kb"
                        }
                    ]
                },
                "hotfix": {
                    "fileReplacements": [
                        {
                            "replace": "apps/cms/src/environments/environment.ts",
                            "with": "apps/cms/src/environments/environment.hotfix.ts"
                        }
                    ],
                    "optimization": true,
                    "outputHashing": "all",
                    "sourceMap": false,
                    "namedChunks": false,
                    "extractLicenses": true,
                    "vendorChunk": false,
                    "buildOptimizer": true,
                    "budgets": [
                        {
                            "type": "initial",
                            "maximumWarning": "2mb",
                            "maximumError": "5mb"
                        },
                        {
                            "type": "anyComponentStyle",
                            "maximumWarning": "6kb",
                            "maximumError": "10kb"
                        }
                    ]
                },
                "stage": {
                    "fileReplacements": [
                        {
                            "replace": "apps/cms/src/environments/environment.ts",
                            "with": "apps/cms/src/environments/environment.stage.ts"
                        }
                    ],
                    "optimization": true,
                    "outputHashing": "all",
                    "sourceMap": false,
                    "namedChunks": false,
                    "extractLicenses": true,
                    "vendorChunk": false,
                    "buildOptimizer": true,
                    "budgets": [
                        {
                            "type": "initial",
                            "maximumWarning": "2mb",
                            "maximumError": "5mb"
                        },
                        {
                            "type": "anyComponentStyle",
                            "maximumWarning": "6kb",
                            "maximumError": "10kb"
                        }
                    ]
                },
                "test": {
                    "fileReplacements": [
                        {
                            "replace": "apps/cms/src/environments/environment.ts",
                            "with": "apps/cms/src/environments/environment.test.ts"
                        }
                    ],
                    "optimization": true,
                    "outputHashing": "all",
                    "sourceMap": false,
                    "namedChunks": false,
                    "extractLicenses": true,
                    "vendorChunk": false,
                    "buildOptimizer": true,
                    "budgets": [
                        {
                            "type": "initial",
                            "maximumWarning": "2mb",
                            "maximumError": "5mb"
                        },
                        {
                            "type": "anyComponentStyle",
                            "maximumWarning": "6kb",
                            "maximumError": "10kb"
                        }
                    ]
                },
                "e2e": {
                    "fileReplacements": [
                        {
                            "replace": "apps/cms/src/environments/environment.ts",
                            "with": "apps/cms/src/environments/environment.e2e.ts"
                        }
                    ],
                    "optimization": true,
                    "outputHashing": "all",
                    "sourceMap": false,
                    "namedChunks": false,
                    "extractLicenses": true,
                    "vendorChunk": false,
                    "buildOptimizer": true,
                    "budgets": [
                        {
                            "type": "initial",
                            "maximumWarning": "2mb",
                            "maximumError": "5mb"
                        },
                        {
                            "type": "anyComponentStyle",
                            "maximumWarning": "6kb",
                            "maximumError": "10kb"
                        }
                    ]
                },
                "e2e-custom": {
                    "fileReplacements": [
                        {
                            "replace": "apps/cms/src/environments/environment.ts",
                            "with": "apps/cms/src/environments/environment.e2e-custom.ts"
                        }
                    ],
                    "optimization": true,
                    "outputHashing": "all",
                    "sourceMap": false,
                    "namedChunks": false,
                    "extractLicenses": true,
                    "vendorChunk": false,
                    "buildOptimizer": true,
                    "budgets": [
                        {
                            "type": "initial",
                            "maximumWarning": "2mb",
                            "maximumError": "5mb"
                        },
                        {
                            "type": "anyComponentStyle",
                            "maximumWarning": "6kb",
                            "maximumError": "10kb"
                        }
                    ]
                },
                "e2e-ci": {
                    "fileReplacements": [
                        {
                            "replace": "apps/cms/src/environments/environment.ts",
                            "with": "apps/cms/src/environments/environment.e2e-ci.ts"
                        }
                    ],
                    "optimization": true,
                    "outputHashing": "all",
                    "sourceMap": false,
                    "namedChunks": false,
                    "extractLicenses": true,
                    "vendorChunk": false,
                    "buildOptimizer": true,
                    "budgets": [
                        {
                            "type": "initial",
                            "maximumWarning": "2mb",
                            "maximumError": "5mb"
                        },
                        {
                            "type": "anyComponentStyle",
                            "maximumWarning": "6kb",
                            "maximumError": "10kb"
                        }
                    ]
                },
                "custom": {
                    "fileReplacements": [
                        {
                            "replace": "apps/cms/src/environments/environment.ts",
                            "with": "apps/cms/src/environments/environment.custom.ts"
                        }
                    ]
                }
            }
        },
        "serve": {
            "executor": "@angular-devkit/build-angular:dev-server",
            "options": {
                "browserTarget": "cms:build"
            },
            "configurations": {
                "local": {
                    "browserTarget": "cms:build:local"
                },
                "production": {
                    "browserTarget": "cms:build:production"
                },
                "e2e": {
                    "browserTarget": "cms:build:e2e"
                },
                "e2e-ci": {
                    "browserTarget": "cms:build:e2e-ci",
                    "port": 4201
                },
                "e2e-custom": {
                    "browserTarget": "cms:build:e2e-custom"
                },
                "custom": {
                    "browserTarget": "cms:build:custom"
                }
            }
        },
        "extract-i18n": {
            "executor": "@angular-devkit/build-angular:extract-i18n",
            "options": {
                "browserTarget": "cms:build"
            }
        },
        "lint": {
            "executor": "@angular-devkit/build-angular:tslint",
            "options": {
                "tsConfig": ["apps/cms/tsconfig.app.json", "apps/cms/tsconfig.spec.json", "apps/cms/tsconfig.editor.json"],
                "exclude": ["**/node_modules/**", "!apps/cms/**/*"]
            }
        },
        "test": {
            "executor": "@nrwl/jest:jest",
            "outputs": ["coverage/apps/cms"],
            "options": {
                "jestConfig": "apps/cms/jest.config.js",
                "passWithNoTests": true
            }
        }
    },
    "tags": []
}
