{
    "projectType": "library",
    "root": "libs/sandbox-web-marketing/ui-styles",
    "sourceRoot": "libs/sandbox-web-marketing/ui-styles/src",
    "prefix": "app",
    "targets": {
        "test": {
            "executor": "@nrwl/jest:jest",
            "outputs": ["coverage/libs/sandbox-web-marketing/ui-styles"],
            "options": {
                "jestConfig": "libs/sandbox-web-marketing/ui-styles/jest.config.js",
                "passWithNoTests": true
            }
        },
        "lint": {
            "executor": "@nrwl/linter:eslint",
            "options": {
                "lintFilePatterns": [
                    "libs/sandbox-web-marketing/ui-styles/src/**/*.ts",
                    "libs/sandbox-web-marketing/ui-styles/src/**/*.html"
                ]
            }
        }
    },
    "tags": []
}
